{
  "SignupUsers": [
    {
      "fullname": "sfvdgbfr",
      "emailId": "ascdvbgfn",
      "phonenumber": 6677889900,
      "password": "zxvfb",
      "cpassword": "ascdvf",
      "id": 2
    },
    {
      "fullname": "Nisha Kumari",
      "emailId": "nisha.kumari@intimetec.com",
      "phonenumber": 6677889900,
      "password": "123456",
      "cpassword": "123456",
      "inlineRadioOptions": "option1",
      "id": 3
    },
    {
      "fullname": "Nisha Kumari",
      "emailId": "nisha.kumari@intimetec.com",
      "phonenumber": 6677889900,
      "password": "Nisha@123",
      "cpassword": "Nisha@123",
      "inlineRadioOptions": "option1",
      "id": 4
    },
    {
      "fullname": "sagt",
      "emailId": "sruthi.unnikrishnan@intimetec.com",
      "phonenumber": 1234567890,
      "password": "Nisha@123456",
      "cpassword": "Nisha@123",
      "inlineRadioOptions": "",
      "id": 6
    },
    {
      "fullname": "eawrtgyvj",
      "emailId": "sruthi.unnikrishnan@intimetec.com",
      "phonenumber": "9708512562",
      "password": "Nisha@123",
      "cpassword": "Nisha@123",
      "inlineRadioOptions": "option1",
      "id": 16
    },
    {
      "fullname": "sagt",
      "emailId": "sruthi.unnikrishnan@intimetec.com",
      "phonenumber": "9856678890",
      "password": "Nisha@123456",
      "cpassword": "Nisha@123456",
      "inlineRadioOptions": "",
      "id": 17
    },
    {
      "fullname": "eawrtgyvj",
      "emailId": "sruthi.unnikrishnan@intimetec.com",
      "phonenumber": "9845678890",
      "password": "Nisha@123456",
      "cpassword": "Nisha@123456",
      "inlineRadioOptions": "",
      "id": 18
    },
    {
      "fullname": "sagt",
      "emailId": "sruthi.unnikrishnan@intimetec.com",
      "phonenumber": "9845678890",
      "password": "Nisha@123",
      "cpassword": "Nisha@123",
      "inlineRadioOptions": "",
      "id": 19
    },
    {
      "fullname": "eawrtgyvj",
      "emailId": "nisha.kumari@intimetec.com",
      "phonenumber": "9845678890",
      "password": "Nisha@123",
      "cpassword": "Nisha@123",
      "inlineRadioOptions": "",
      "id": 20
    },
    {
      "fullname": "sagt",
      "emailId": "nisha.kumari@intimetec.com",
      "phonenumber": "9845678890",
      "password": "Nisha@123",
      "cpassword": "Nisha@123",
      "inlineRadioOptions": "Female",
      "id": 21
    },
    {
      "fullname": "sagt",
      "emailId": "nisha.kumari@intimetec.com",
      "phonenumber": "9845678890",
      "password": "Nisha@123",
      "cpassword": "Nisha@123",
      "inlineRadioOptions": "",
      "id": 22
    },
    {
      "fullname": "eawrtgyvj",
      "emailId": "nisha.kumari@intimetec.com",
      "phonenumber": "9845678890",
      "password": "Nisha@123",
      "cpassword": "Nisha@123",
      "inlineRadioOptions": "Female",
      "id": 23
    },
    {
      "fullname": "Nisha",
      "emailId": "nisha.kumari@intimetec.com",
      "phonenumber": "9845678890",
      "password": "Nisha@123",
      "cpassword": "Nisha@123",
      "inlineRadioOptions": "Female",
      "id": 26
    },
    {
      "fullname": "Nisha",
      "emailId": "nisha.kumari@intimetec.com",
      "phonenumber": "9845678890",
      "password": "Nisha@123",
      "cpassword": "Nisha@123",
      "inlineRadioOptions": "Female",
      "id": 27
    },
    {
      "fullname": "dfgh",
      "emailId": "nisha.kumari@intimetec.com",
      "phonenumber": "9845678890",
      "password": "Nisha@123",
      "cpassword": "Nisha@123",
      "inlineRadioOptions": "Female",
      "id": 28
    },
    {
      "fullname": "eawrtgyvj",
      "emailId": "nisha.kumari@intimetec.com",
      "phonenumber": "9845678890",
      "password": "Nisha@123",
      "cpassword": "Nisha@123",
      "inlineRadioOptions": "Female",
      "id": 29
    },
    {
      "fullname": "eawrtgyvj",
      "emailId": "nisha.kuaamari@intimetec.com",
      "phonenumber": "9845678890",
      "password": "Nisha@123",
      "cpassword": "Nisha@123",
      "inlineRadioOptions": "Female",
      "id": 30
    }
  ],
  "Employee": [
    {
      "firstName": "rstrdtryiugjlbnm",
      "lastName": "ydxfdgikhnlm",
      "email": "fcyrtfugvh@6rtuf.com",
      "mobileNumber": "8105326105",
      "salary": "700000",
      "id": 9
    },
    {
      "firstName": "nisha",
      "lastName": "kumari",
      "email": "fghj@1234.com",
      "mobileNumber": "9999999999",
      "salary": 50000000,
      "id": 17
    },
    {
      "firstName": "ghjk",
      "lastName": "dfghj",
      "email": "fghj@gmail.com",
      "mobileNumber": "2345678777",
      "salary": 345678,
      "id": 19
    },
    {
      "firstName": "fghja",
      "lastName": "dfghj",
      "email": "sdfg@gmail.com",
      "mobileNumber": "2345678945",
      "salary": 2345678,
      "id": 20
    },
    {
      "firstName": "sdfghjk",
      "lastName": "sdfcvgbnm",
      "email": "asdfg@gmail.com",
      "mobileNumber": "1234561234",
      "salary": 2345678,
      "id": 21
    },
    {
      "firstName": "fghja",
      "lastName": "fgbn",
      "email": "nisha.kumari@gmail.com",
      "mobileNumber": "2345674567",
      "salary": 2345678,
      "id": 22
    },
    {
      "firstName": "xdh",
      "lastName": "dfghj",
      "email": "sdfghj@gmail.com",
      "mobileNumber": "2345678567",
      "salary": 23456789,
      "id": 23
    },
    {
      "firstName": "dfghjk",
      "lastName": "fgbhnj",
      "email": "nisha.kuari@intimetec.com",
      "mobileNumber": "1234567895",
      "salary": 3456789,
      "id": 24
    },
    {
      "firstName": "dfghj",
      "lastName": "fghjk",
      "email": "nisha.kumari7@intimetec.com",
      "mobileNumber": "2345678766",
      "salary": 23456789,
      "id": 25
    },
    {
      "firstName": "dfghj",
      "lastName": "kumari",
      "email": "kumari123@gmail.com",
      "mobileNumber": "9877776555",
      "salary": 70000000,
      "id": 26
    },
    {
      "firstName": "Sruthi",
      "lastName": "awrrtt",
      "email": "sruresdfxcgtvg4@gmail.com",
      "mobileNumber": "8105326103",
      "salary": "1200000",
      "id": 27
    },
    {
      "firstName": "fghja",
      "lastName": "kumari",
      "email": "nisha@123.com",
      "mobileNumber": "9800000000",
      "salary": 8000000,
      "id": 28
    },
    {
      "firstName": "fgyiuhj",
      "lastName": "ydfigohkl",
      "email": "ydytryifh@yturf.com",
      "mobileNumber": "1234567890",
      "salary": "1500000",
      "id": 29
    },
    {
      "firstName": "nisha",
      "lastName": "sharma",
      "email": "kumari12@gmail.com",
      "mobileNumber": "7889898999",
      "salary": 1500000,
      "id": 30
    },
    {
      "firstName": "fghja",
      "lastName": "kumari",
      "email": "deeksha2@gmail.com",
      "mobileNumber": "9876543213",
      "salary": 1500000,
      "id": 31
    },
    {
      "firstName": "meena",
      "lastName": "sharma",
      "email": "meena@gmail.com",
      "mobileNumber": "9998765432",
      "salary": 1400000,
      "id": 32
    },
    {
      "firstName": "khush",
      "lastName": "jain",
      "email": "khushi@gmail.com",
      "mobileNumber": "9987654679",
      "salary": 1300000,
      "id": 33
    },
    {
      "firstName": "kiran",
      "lastName": "sharma",
      "email": "kiran@123gmail.com",
      "mobileNumber": "9876543234",
      "salary": 1600000,
      "id": 34
    },
    {
      "firstName": "deepa",
      "lastName": "deepa",
      "email": "deepa123@gmail.com",
      "mobileNumber": "8976543212",
      "salary": 1800000,
      "id": 35
    },
    {
      "firstName": "khooshbu",
      "lastName": "sharma",
      "email": "kriti@gmail.com",
      "mobileNumber": "9876543678",
      "salary": "sdzfxghjk';l,m. ",
      "id": 36
    },
    {
      "firstName": "fghja",
      "lastName": "dfghj",
      "email": "dsfdaf@dfsd.com",
      "mobileNumber": "3455435435",
      "salary": 435435435435,
      "id": 38
    },
    {
      "firstName": "dfghj",
      "lastName": "dfghj",
      "email": "hjk@gmail.com",
      "mobileNumber": "9876467778",
      "salary": "234567890-",
      "id": 39
    },
    {
      "firstName": "rekha",
      "lastName": "singh",
      "email": "rekha@gmail.com",
      "mobileNumber": "8987654356",
      "salary": 1900000,
      "id": 40
    },
    {
      "firstName": "egrtgh",
      "lastName": "fdbsdf",
      "email": "sdtyugldh@lfriglk.com",
      "mobileNumber": "1234567890",
      "salary": 24565678,
      "id": 41
    }
  ]
}